[gd_scene load_steps=7 format=1]

[ext_resource path="res://game.gd" type="Script" id=1]
[ext_resource path="res://Interface.tscn" type="PackedScene" id=2]
[ext_resource path="res://player.tscn" type="PackedScene" id=3]
[ext_resource path="res://PlatformManager.tscn" type="PackedScene" id=4]
[ext_resource path="res://EnemyManager.tscn" type="PackedScene" id=5]
[ext_resource path="res://Meadow Thoughts.ogg" type="AudioStream" id=6]

[node name="Game" type="Node2D"]

script/script = ExtResource( 1 )

[node name="Interface" parent="." instance=ExtResource( 2 )]

[node name="player" parent="." instance=ExtResource( 3 )]

transform/pos = Vector2( 244.29, 323.009 )

[node name="PlatformManager" parent="." instance=ExtResource( 4 )]

[node name="EnemyManager" parent="." instance=ExtResource( 5 )]

[node name="StreamPlayer" type="StreamPlayer" parent="."]

stream/stream = ExtResource( 6 )
stream/play = false
stream/loop = true
stream/volume_db = 0.0
stream/autoplay = true
stream/paused = false
stream/loop_restart_time = 0.0
stream/buffering_ms = 500


