[gd_scene load_steps=3 format=1]

[ext_resource path="res://PlatformManager.gd" type="Script" id=1]
[ext_resource path="res://platform1.tscn" type="PackedScene" id=2]

[node name="PlatformManager" type="Node2D"]

script/script = ExtResource( 1 )
GAME_SPEED = 140.0

[node name="startPlatform" parent="." instance=ExtResource( 2 )]

transform/pos = Vector2( 250, 420 )

[node name="startPlatform1" parent="." instance=ExtResource( 2 )]

transform/pos = Vector2( 442, 420 )

[node name="startPlatform2" parent="." instance=ExtResource( 2 )]

transform/pos = Vector2( 634, 420 )

[node name="startPlatform3" parent="." instance=ExtResource( 2 )]

transform/pos = Vector2( 826, 420 )


